<!DOCTYPE html>
<html>
<body>

<h2>JavaScript String Methods</h2>
<p>Using String.split():</p>
<p id = "demo"></p>

<script>
var text = "Nithin"
    arry = text.split("") //N,i,t,h,i,n
    lgth = text.length //6

let result = ""
for(let i=0;i<lgth;i++){
result = result+arry[i]+"<br>" 

}  
    
document.getElementById('demo').innerHTML = result  

</script>





</body>
</html>